…
## 3. What is the average daily activity pattern?  

To look at the daily patterns we start by grouping the data by interval. Then we summarize the grouped data to get total steps per interval, total days in the data, and then get the mean of total steps in each interval.

```r
act_data_int <- act_data %>% group_by(interval)
act_data_int_total <- act_data_int %>% 
        summarise(Steps_Total = sum(steps, na.rm = TRUE),
                  Days = n(),
                  Steps_Average = mean(steps, na.rm = TRUE))
act_data_int_total
```

```
## # A tibble: 288 x 4
##    interval Steps_Total  Days Steps_Average
##       <int>       <dbl> <int>         <dbl>
##  1        0          91    61        1.72  
##  2        5          18    61        0.340 
##  3       10           7    61        0.132 
##  4       15           8    61        0.151 
##  5       20           4    61        0.0755
##  6       25         111    61        2.09  
##  7       30          28    61        0.528 
##  8       35          46    61        0.868 
##  9       40           0    61        0     
## 10       45          78    61        1.47  
## # ... with 278 more rows
```
…
```
##    Steps = NA Count
## 1:      FALSE 15264
## 2:         NA  2304
```

```r
NAcount_int <- act_data %>% group_by(date)
NAcount_int <- NAcount_int %>% summarise(Steps_NA = sum(is.na(steps)))
NAcount_int
```

```
## # A tibble: 61 x 2
##    date       Steps_NA
##    <date>        <int>
##  1 2012-10-01      288
##  2 2012-10-02        0
##  3 2012-10-03        0
##  4 2012-10-04        0
##  5 2012-10-05        0
##  6 2012-10-06        0
##  7 2012-10-07        0
##  8 2012-10-08      288
##  9 2012-10-09        0
## 10 2012-10-10        0
## # ... with 51 more rows
```
…
